<svg width="240" height="70" viewBox="0 0 240 70" fill="none" xmlns="http://www.w3.org/2000/svg">
<path d="M238.828 51.7131L222.528 68.8283H1.17172V18.2869L17.4719 1.17172H238.828V51.7131Z" stroke="white" stroke-width="2.34343"/>
<path d="M42.7752 41.3636L36.8697 26.6H39.4639L42.9861 35.5636C43.1548 35.9995 43.3024 36.3932 43.429 36.7447C43.5696 37.0963 43.6891 37.4196 43.7875 37.7149C43.8859 37.9961 43.9773 38.2633 44.0617 38.5164C44.1461 38.7695 44.2304 39.0226 44.3148 39.2756L43.7664 39.2967C43.8649 38.9593 43.9703 38.6078 44.0828 38.2422C44.1953 37.8766 44.3218 37.4759 44.4624 37.04C44.6171 36.6041 44.7999 36.112 45.0108 35.5636L48.2799 26.6H50.9373L44.9897 41.3636H42.7752ZM53.3173 41.3636V30.2909H55.4897V41.3636H53.3173ZM54.3719 27.8444C53.9079 27.8444 53.5493 27.7249 53.2962 27.4858C53.0431 27.2468 52.9166 26.9093 52.9166 26.4735C52.9166 26.0657 53.0431 25.7353 53.2962 25.4822C53.5634 25.2291 53.9219 25.1026 54.3719 25.1026C54.8359 25.1026 55.1944 25.2221 55.4475 25.4611C55.7006 25.7001 55.8271 26.0376 55.8271 26.4735C55.8271 26.8812 55.6936 27.2116 55.4264 27.4647C55.1733 27.7178 54.8218 27.8444 54.3719 27.8444ZM62.5197 41.5746C61.5917 41.5746 60.7551 41.4129 60.0099 41.0895C59.2647 40.7661 58.646 40.288 58.1539 39.6553L59.6303 38.3898C60.0521 38.882 60.509 39.2405 61.0012 39.4655C61.5073 39.6764 62.0768 39.7818 62.7095 39.7818C62.9626 39.7818 63.1946 39.7537 63.4055 39.6975C63.6305 39.6272 63.8203 39.5287 63.975 39.4022C64.1437 39.2756 64.2703 39.128 64.3546 38.9593C64.439 38.7765 64.4812 38.5796 64.4812 38.3687C64.4812 38.0032 64.3476 37.7079 64.0804 37.4829C63.9398 37.3845 63.7149 37.279 63.4055 37.1666C63.1103 37.04 62.7236 36.9135 62.2455 36.7869C61.43 36.576 60.7621 36.337 60.2419 36.0698C59.7217 35.8027 59.3209 35.5004 59.0397 35.1629C58.8288 34.8958 58.6741 34.6075 58.5757 34.2982C58.4773 33.9748 58.4281 33.6233 58.4281 33.2436C58.4281 32.7796 58.5265 32.3578 58.7233 31.9782C58.9343 31.5845 59.2155 31.247 59.567 30.9658C59.9326 30.6706 60.3544 30.4456 60.8324 30.2909C61.3246 30.1363 61.8448 30.0589 62.3932 30.0589C62.9134 30.0589 63.4266 30.1292 63.9328 30.2698C64.453 30.4104 64.9311 30.6143 65.367 30.8815C65.8029 31.1486 66.1684 31.465 66.4637 31.8306L65.2193 33.2015C64.9522 32.9343 64.6569 32.7023 64.3335 32.5055C64.0242 32.2946 63.7078 32.1329 63.3844 32.0204C63.061 31.9079 62.7658 31.8516 62.4986 31.8516C62.2033 31.8516 61.9362 31.8798 61.6972 31.936C61.4581 31.9923 61.2543 32.0766 61.0855 32.1891C60.9309 32.3016 60.8113 32.4422 60.727 32.6109C60.6426 32.7796 60.6004 32.9695 60.6004 33.1804C60.6145 33.3632 60.6567 33.5389 60.727 33.7076C60.8113 33.8623 60.9238 33.9959 61.0644 34.1084C61.2191 34.2209 61.4511 34.3404 61.7604 34.4669C62.0698 34.5935 62.4635 34.713 62.9415 34.8255C63.6446 35.0083 64.221 35.2121 64.671 35.4371C65.135 35.648 65.5006 35.8941 65.7677 36.1753C66.0489 36.4424 66.2458 36.7518 66.3583 37.1033C66.4707 37.4548 66.527 37.8485 66.527 38.2844C66.527 38.9171 66.3442 39.4866 65.9786 39.9927C65.6271 40.4849 65.149 40.8715 64.5444 41.1527C63.9398 41.434 63.2649 41.5746 62.5197 41.5746ZM72.8019 41.5746C72.0145 41.5746 71.3255 41.3918 70.7349 41.0262C70.1585 40.6606 69.7085 40.1474 69.3851 39.4866C69.0758 38.8257 68.9211 38.0383 68.9211 37.1244V30.2909H71.0935V36.5338C71.0935 37.1806 71.1919 37.743 71.3888 38.2211C71.5997 38.6851 71.8949 39.0436 72.2746 39.2967C72.6683 39.5498 73.1393 39.6764 73.6877 39.6764C74.0954 39.6764 74.468 39.6131 74.8055 39.4866C75.1429 39.346 75.4312 39.1561 75.6702 38.9171C75.9233 38.6781 76.1202 38.3898 76.2608 38.0524C76.4014 37.7149 76.4717 37.3493 76.4717 36.9556V30.2909H78.644V41.3636H76.4717V39.0436L76.8513 38.7906C76.6826 39.3108 76.3943 39.7818 75.9866 40.2036C75.5929 40.6255 75.1219 40.9629 74.5735 41.216C74.0251 41.455 73.4346 41.5746 72.8019 41.5746ZM85.9514 41.5746C85.0374 41.5746 84.2008 41.3215 83.4416 40.8153C82.6964 40.3091 82.0988 39.6201 81.6488 38.7484C81.1989 37.8766 80.9739 36.8924 80.9739 35.7956C80.9739 34.6849 81.1989 33.7006 81.6488 32.8429C82.1128 31.9712 82.7315 31.2892 83.5048 30.7971C84.2922 30.305 85.171 30.0589 86.1412 30.0589C86.7177 30.0589 87.245 30.1433 87.723 30.312C88.2011 30.4807 88.6159 30.7198 88.9674 31.0291C89.333 31.3244 89.6282 31.6689 89.8532 32.0626C90.0922 32.4563 90.2399 32.8781 90.2961 33.328L89.811 33.1593V30.2909H92.0045V41.3636H89.811V38.7273L90.3172 38.5796C90.2328 38.9593 90.0571 39.3319 89.7899 39.6975C89.5368 40.049 89.2064 40.3653 88.7987 40.6466C88.405 40.9278 87.962 41.1527 87.4699 41.3215C86.9919 41.4902 86.4857 41.5746 85.9514 41.5746ZM86.5208 39.5709C87.1817 39.5709 87.7652 39.4092 88.2714 39.0858C88.7776 38.7624 89.1713 38.3195 89.4525 37.7571C89.7477 37.1806 89.8954 36.5268 89.8954 35.7956C89.8954 35.0786 89.7477 34.4388 89.4525 33.8764C89.1713 33.314 88.7776 32.871 88.2714 32.5476C87.7652 32.2243 87.1817 32.0626 86.5208 32.0626C85.874 32.0626 85.2976 32.2243 84.7914 32.5476C84.2993 32.871 83.9056 33.314 83.6103 33.8764C83.3291 34.4388 83.1885 35.0786 83.1885 35.7956C83.1885 36.5268 83.3291 37.1806 83.6103 37.7571C83.9056 38.3195 84.2993 38.7624 84.7914 39.0858C85.2976 39.4092 85.874 39.5709 86.5208 39.5709ZM95.0798 41.3636V25.7564H97.2522V41.3636H95.0798ZM100.689 41.3636V30.2909H102.862V41.3636H100.689ZM101.744 27.8444C101.28 27.8444 100.921 27.7249 100.668 27.4858C100.415 27.2468 100.289 26.9093 100.289 26.4735C100.289 26.0657 100.415 25.7353 100.668 25.4822C100.936 25.2291 101.294 25.1026 101.744 25.1026C102.208 25.1026 102.567 25.2221 102.82 25.4611C103.073 25.7001 103.199 26.0376 103.199 26.4735C103.199 26.8812 103.066 27.2116 102.799 27.4647C102.545 27.7178 102.194 27.8444 101.744 27.8444ZM105.737 41.3636V39.5498L111.453 31.9149V32.168H105.737V30.2909H113.815V32.0626L108.184 39.592L108.099 39.4866H113.941V41.3636H105.737ZM120.471 41.5746C119.557 41.5746 118.721 41.3215 117.961 40.8153C117.216 40.3091 116.619 39.6201 116.169 38.7484C115.719 37.8766 115.494 36.8924 115.494 35.7956C115.494 34.6849 115.719 33.7006 116.169 32.8429C116.633 31.9712 117.251 31.2892 118.025 30.7971C118.812 30.305 119.691 30.0589 120.661 30.0589C121.238 30.0589 121.765 30.1433 122.243 30.312C122.721 30.4807 123.136 30.7198 123.487 31.0291C123.853 31.3244 124.148 31.6689 124.373 32.0626C124.612 32.4563 124.76 32.8781 124.816 33.328L124.331 33.1593V30.2909H126.524V41.3636H124.331V38.7273L124.837 38.5796C124.753 38.9593 124.577 39.3319 124.31 39.6975C124.057 40.049 123.726 40.3653 123.319 40.6466C122.925 40.9278 122.482 41.1527 121.99 41.3215C121.512 41.4902 121.006 41.5746 120.471 41.5746ZM121.041 39.5709C121.702 39.5709 122.285 39.4092 122.791 39.0858C123.297 38.7624 123.691 38.3195 123.972 37.7571C124.268 37.1806 124.415 36.5268 124.415 35.7956C124.415 35.0786 124.268 34.4388 123.972 33.8764C123.691 33.314 123.297 32.871 122.791 32.5476C122.285 32.2243 121.702 32.0626 121.041 32.0626C120.394 32.0626 119.817 32.2243 119.311 32.5476C118.819 32.871 118.425 33.314 118.13 33.8764C117.849 34.4388 117.708 35.0786 117.708 35.7956C117.708 36.5268 117.849 37.1806 118.13 37.7571C118.425 38.3195 118.819 38.7624 119.311 39.0858C119.817 39.4092 120.394 39.5709 121.041 39.5709ZM129.557 41.3636V30.2909H131.751V33.7709L131.54 32.9273C131.695 32.393 131.955 31.9079 132.32 31.472C132.7 31.0361 133.129 30.6916 133.607 30.4386C134.099 30.1855 134.605 30.0589 135.125 30.0589C135.365 30.0589 135.589 30.08 135.8 30.1222C136.025 30.1644 136.201 30.2136 136.328 30.2698L135.758 32.632C135.589 32.5617 135.4 32.5055 135.189 32.4633C134.992 32.407 134.795 32.3789 134.598 32.3789C134.219 32.3789 133.853 32.4563 133.501 32.6109C133.164 32.7515 132.862 32.9554 132.595 33.2226C132.341 33.4756 132.138 33.778 131.983 34.1295C131.828 34.4669 131.751 34.8395 131.751 35.2473V41.3636H129.557ZM144.523 41.3636V26.6H146.801V41.3636H144.523ZM145.536 35.0786V32.8851H153.15V35.0786H145.536ZM145.536 28.7935V26.6H154.099V28.7935H145.536ZM156.477 41.3636V30.2909H158.671V33.7709L158.46 32.9273C158.614 32.393 158.875 31.9079 159.24 31.472C159.62 31.0361 160.049 30.6916 160.527 30.4386C161.019 30.1855 161.525 30.0589 162.045 30.0589C162.284 30.0589 162.509 30.08 162.72 30.1222C162.945 30.1644 163.121 30.2136 163.247 30.2698L162.678 32.632C162.509 32.5617 162.319 32.5055 162.109 32.4633C161.912 32.407 161.715 32.3789 161.518 32.3789C161.138 32.3789 160.773 32.4563 160.421 32.6109C160.084 32.7515 159.781 32.9554 159.514 33.2226C159.261 33.4756 159.057 33.778 158.903 34.1295C158.748 34.4669 158.671 34.8395 158.671 35.2473V41.3636H156.477ZM169.487 41.5746C168.405 41.5746 167.435 41.3285 166.577 40.8364C165.733 40.3302 165.065 39.6483 164.573 38.7906C164.081 37.9188 163.835 36.9275 163.835 35.8167C163.835 34.706 164.081 33.7217 164.573 32.864C165.065 31.9923 165.733 31.3103 166.577 30.8182C167.435 30.312 168.405 30.0589 169.487 30.0589C170.556 30.0589 171.512 30.312 172.356 30.8182C173.213 31.3103 173.888 31.9923 174.38 32.864C174.873 33.7217 175.119 34.706 175.119 35.8167C175.119 36.9275 174.873 37.9188 174.38 38.7906C173.888 39.6483 173.213 40.3302 172.356 40.8364C171.512 41.3285 170.556 41.5746 169.487 41.5746ZM169.487 39.592C170.148 39.592 170.739 39.4303 171.259 39.1069C171.779 38.7695 172.187 38.3195 172.482 37.7571C172.778 37.1806 172.918 36.5338 172.904 35.8167C172.918 35.0856 172.778 34.4388 172.482 33.8764C172.187 33.2999 171.779 32.85 171.259 32.5266C170.739 32.2032 170.148 32.0415 169.487 32.0415C168.827 32.0415 168.229 32.2102 167.695 32.5476C167.174 32.871 166.767 33.321 166.471 33.8975C166.176 34.4599 166.035 35.0996 166.05 35.8167C166.035 36.5338 166.176 37.1806 166.471 37.7571C166.767 38.3195 167.174 38.7695 167.695 39.1069C168.229 39.4303 168.827 39.592 169.487 39.592ZM178.857 41.3636V27.4647H181.029V41.3636H178.857ZM176.558 32.4V30.2909H183.602V32.4H176.558ZM189.738 41.5746C188.824 41.5746 187.987 41.3215 187.228 40.8153C186.483 40.3091 185.885 39.6201 185.435 38.7484C184.985 37.8766 184.76 36.8924 184.76 35.7956C184.76 34.6849 184.985 33.7006 185.435 32.8429C185.899 31.9712 186.518 31.2892 187.291 30.7971C188.078 30.305 188.957 30.0589 189.927 30.0589C190.504 30.0589 191.031 30.1433 191.509 30.312C191.987 30.4807 192.402 30.7198 192.754 31.0291C193.119 31.3244 193.414 31.6689 193.639 32.0626C193.878 32.4563 194.026 32.8781 194.082 33.328L193.597 33.1593V30.2909H195.791V41.3636H193.597V38.7273L194.103 38.5796C194.019 38.9593 193.843 39.3319 193.576 39.6975C193.323 40.049 192.993 40.3653 192.585 40.6466C192.191 40.9278 191.748 41.1527 191.256 41.3215C190.778 41.4902 190.272 41.5746 189.738 41.5746ZM190.307 39.5709C190.968 39.5709 191.551 39.4092 192.058 39.0858C192.564 38.7624 192.957 38.3195 193.239 37.7571C193.534 37.1806 193.682 36.5268 193.682 35.7956C193.682 35.0786 193.534 34.4388 193.239 33.8764C192.957 33.314 192.564 32.871 192.058 32.5476C191.551 32.2243 190.968 32.0626 190.307 32.0626C189.66 32.0626 189.084 32.2243 188.578 32.5476C188.085 32.871 187.692 33.314 187.397 33.8764C187.115 34.4388 186.975 35.0786 186.975 35.7956C186.975 36.5268 187.115 37.1806 187.397 37.7571C187.692 38.3195 188.085 38.7624 188.578 39.0858C189.084 39.4092 189.66 39.5709 190.307 39.5709Z" fill="white"/>
</svg>
