<svg width="236" height="55" viewBox="0 0 236 55" fill="none" xmlns="http://www.w3.org/2000/svg">
<path d="M235 40.5858L221.586 54H1V14.4142L14.4142 1H235V40.5858Z" fill="#161937" fill-opacity="0.76" stroke="#F4F4F7" stroke-width="2"/>
<path d="M63.438 21.4L58.362 34H56.472L51.432 21.4H53.646L56.652 29.05C56.808 29.458 56.958 29.86 57.102 30.256C57.258 30.652 57.402 31.054 57.534 31.462C57.666 31.054 57.804 30.652 57.948 30.256C58.092 29.848 58.236 29.446 58.38 29.05L61.17 21.4H63.438ZM66.4052 22.498C65.9852 22.498 65.6732 22.39 65.4692 22.174C65.2652 21.958 65.1632 21.676 65.1632 21.328C65.1632 21.028 65.2652 20.758 65.4692 20.518C65.6732 20.278 65.9852 20.158 66.4052 20.158C66.8252 20.158 67.1372 20.266 67.3412 20.482C67.5452 20.698 67.6472 20.98 67.6472 21.328C67.6472 21.628 67.5452 21.898 67.3412 22.138C67.1372 22.378 66.8252 22.498 66.4052 22.498ZM67.3592 34H65.5052V24.55H67.3592V34ZM75.627 27.034C75.291 26.698 74.907 26.422 74.475 26.206C74.055 25.99 73.665 25.882 73.305 25.882C73.053 25.882 72.801 25.912 72.549 25.972C72.309 26.032 72.105 26.146 71.937 26.314C71.769 26.47 71.685 26.704 71.685 27.016C71.697 27.448 71.889 27.754 72.261 27.934C72.645 28.114 73.119 28.276 73.683 28.42C74.175 28.552 74.655 28.72 75.123 28.924C75.591 29.116 75.975 29.404 76.275 29.788C76.587 30.16 76.743 30.688 76.743 31.372C76.743 31.96 76.575 32.464 76.239 32.884C75.915 33.304 75.489 33.628 74.961 33.856C74.445 34.072 73.899 34.18 73.323 34.18C72.639 34.18 71.961 34.06 71.289 33.82C70.629 33.568 70.065 33.142 69.597 32.542L70.857 31.462C71.181 31.834 71.547 32.128 71.955 32.344C72.375 32.548 72.885 32.65 73.485 32.65C73.713 32.65 73.941 32.614 74.169 32.542C74.397 32.458 74.589 32.332 74.745 32.164C74.913 31.984 74.997 31.744 74.997 31.444C74.997 31.156 74.907 30.934 74.727 30.778C74.559 30.61 74.331 30.478 74.043 30.382C73.755 30.274 73.437 30.178 73.089 30.094C72.573 29.95 72.063 29.776 71.559 29.572C71.067 29.356 70.653 29.056 70.317 28.672C69.993 28.276 69.831 27.742 69.831 27.07C69.831 26.506 69.987 26.026 70.299 25.63C70.623 25.222 71.043 24.91 71.559 24.694C72.075 24.466 72.627 24.352 73.215 24.352C73.779 24.352 74.391 24.472 75.051 24.712C75.711 24.952 76.257 25.336 76.689 25.864L75.627 27.034ZM85.2302 30.238V24.55H87.0842V34H85.2302V32.488C84.9542 32.932 84.5462 33.328 84.0062 33.676C83.4782 34.012 82.8422 34.18 82.0982 34.18C81.1142 34.18 80.3162 33.844 79.7042 33.172C79.0922 32.5 78.7862 31.57 78.7862 30.382V24.55H80.6402V29.878C80.6402 30.358 80.7122 30.802 80.8562 31.21C81.0122 31.618 81.2522 31.948 81.5762 32.2C81.9122 32.44 82.3382 32.56 82.8542 32.56C83.5022 32.56 84.0602 32.356 84.5282 31.948C84.9962 31.54 85.2302 30.97 85.2302 30.238ZM98.4867 24.55V34H96.6147V32.542C96.3267 32.938 95.9007 33.31 95.3367 33.658C94.7727 34.006 94.1187 34.18 93.3747 34.18C92.5827 34.18 91.8567 33.97 91.1967 33.55C90.5487 33.13 90.0327 32.548 89.6487 31.804C89.2647 31.06 89.0727 30.208 89.0727 29.248C89.0727 28.288 89.2707 27.442 89.6667 26.71C90.0627 25.966 90.6087 25.39 91.3047 24.982C92.0007 24.562 92.7927 24.352 93.6807 24.352C94.3407 24.352 94.9167 24.496 95.4087 24.784C95.9127 25.072 96.3147 25.408 96.6147 25.792V24.55H98.4867ZM93.8067 32.47C94.3827 32.47 94.8867 32.332 95.3187 32.056C95.7507 31.768 96.0867 31.384 96.3267 30.904C96.5667 30.412 96.6867 29.86 96.6867 29.248C96.6867 28.648 96.5667 28.108 96.3267 27.628C96.0867 27.148 95.7507 26.77 95.3187 26.494C94.8867 26.206 94.3827 26.062 93.8067 26.062C93.2547 26.062 92.7627 26.2 92.3307 26.476C91.8987 26.752 91.5627 27.13 91.3227 27.61C91.0827 28.09 90.9627 28.636 90.9627 29.248C90.9627 29.86 91.0827 30.412 91.3227 30.904C91.5627 31.384 91.8987 31.768 92.3307 32.056C92.7627 32.332 93.2547 32.47 93.8067 32.47ZM101.075 34V20.68H102.929V34H101.075ZM106.817 22.498C106.397 22.498 106.085 22.39 105.881 22.174C105.677 21.958 105.575 21.676 105.575 21.328C105.575 21.028 105.677 20.758 105.881 20.518C106.085 20.278 106.397 20.158 106.817 20.158C107.237 20.158 107.549 20.266 107.753 20.482C107.957 20.698 108.059 20.98 108.059 21.328C108.059 21.628 107.957 21.898 107.753 22.138C107.549 22.378 107.237 22.498 106.817 22.498ZM107.771 34H105.917V24.55H107.771V34ZM117.191 32.398V34H110.189V32.452L114.905 26.152H110.189V24.55H117.083V26.062L112.349 32.398H117.191ZM127.93 24.55V34H126.058V32.542C125.77 32.938 125.344 33.31 124.78 33.658C124.216 34.006 123.562 34.18 122.818 34.18C122.026 34.18 121.3 33.97 120.64 33.55C119.992 33.13 119.476 32.548 119.092 31.804C118.708 31.06 118.516 30.208 118.516 29.248C118.516 28.288 118.714 27.442 119.11 26.71C119.506 25.966 120.052 25.39 120.748 24.982C121.444 24.562 122.236 24.352 123.124 24.352C123.784 24.352 124.36 24.496 124.852 24.784C125.356 25.072 125.758 25.408 126.058 25.792V24.55H127.93ZM123.25 32.47C123.826 32.47 124.33 32.332 124.762 32.056C125.194 31.768 125.53 31.384 125.77 30.904C126.01 30.412 126.13 29.86 126.13 29.248C126.13 28.648 126.01 28.108 125.77 27.628C125.53 27.148 125.194 26.77 124.762 26.494C124.33 26.206 123.826 26.062 123.25 26.062C122.698 26.062 122.206 26.2 121.774 26.476C121.342 26.752 121.006 27.13 120.766 27.61C120.526 28.09 120.406 28.636 120.406 29.248C120.406 29.86 120.526 30.412 120.766 30.904C121.006 31.384 121.342 31.768 121.774 32.056C122.206 32.332 122.698 32.47 123.25 32.47ZM135.811 26.548C135.691 26.488 135.541 26.44 135.361 26.404C135.193 26.356 135.013 26.332 134.821 26.332C134.437 26.332 134.059 26.434 133.687 26.638C133.315 26.83 133.003 27.112 132.751 27.484C132.511 27.844 132.391 28.276 132.391 28.78V34H130.519V24.55H132.391V26.332C132.655 25.756 133.051 25.282 133.579 24.91C134.119 24.538 134.683 24.352 135.271 24.352C135.715 24.352 136.057 24.412 136.297 24.532L135.811 26.548ZM147.953 26.422H145.721V34H143.849V26.422H142.337V24.712H143.849V23.488C143.849 22.672 144.107 22.006 144.623 21.49C145.151 20.962 145.829 20.698 146.657 20.698C147.137 20.698 147.533 20.788 147.845 20.968C148.169 21.148 148.403 21.322 148.547 21.49L147.917 22.912C147.797 22.792 147.641 22.684 147.449 22.588C147.257 22.48 147.065 22.426 146.873 22.426C146.441 22.426 146.141 22.528 145.973 22.732C145.805 22.936 145.721 23.188 145.721 23.488V24.712H147.953V26.422ZM155.182 26.548C155.062 26.488 154.912 26.44 154.732 26.404C154.564 26.356 154.384 26.332 154.192 26.332C153.808 26.332 153.43 26.434 153.058 26.638C152.686 26.83 152.374 27.112 152.122 27.484C151.882 27.844 151.762 28.276 151.762 28.78V34H149.89V24.55H151.762V26.332C152.026 25.756 152.422 25.282 152.95 24.91C153.49 24.538 154.054 24.352 154.642 24.352C155.086 24.352 155.428 24.412 155.668 24.532L155.182 26.548ZM165.799 29.266C165.799 30.226 165.583 31.078 165.151 31.822C164.731 32.554 164.155 33.13 163.423 33.55C162.703 33.97 161.893 34.18 160.993 34.18C160.093 34.18 159.277 33.97 158.545 33.55C157.813 33.13 157.231 32.554 156.799 31.822C156.379 31.078 156.169 30.226 156.169 29.266C156.169 28.306 156.379 27.46 156.799 26.728C157.231 25.984 157.813 25.402 158.545 24.982C159.277 24.562 160.093 24.352 160.993 24.352C161.893 24.352 162.703 24.562 163.423 24.982C164.155 25.402 164.731 25.984 165.151 26.728C165.583 27.46 165.799 28.306 165.799 29.266ZM163.909 29.266C163.921 28.63 163.795 28.072 163.531 27.592C163.279 27.1 162.931 26.722 162.487 26.458C162.043 26.182 161.545 26.044 160.993 26.044C160.441 26.044 159.937 26.182 159.481 26.458C159.037 26.722 158.683 27.1 158.419 27.592C158.167 28.072 158.047 28.63 158.059 29.266C158.047 29.89 158.167 30.448 158.419 30.94C158.683 31.42 159.037 31.798 159.481 32.074C159.937 32.35 160.441 32.488 160.993 32.488C161.545 32.488 162.043 32.35 162.487 32.074C162.931 31.798 163.279 31.42 163.531 30.94C163.795 30.448 163.921 29.89 163.909 29.266ZM170.843 34H168.989V26.35H167.027V24.55H168.989V22.138H170.843V24.55H173.039V26.35H170.843V34ZM183.442 24.55V34H181.57V32.542C181.282 32.938 180.856 33.31 180.292 33.658C179.728 34.006 179.074 34.18 178.33 34.18C177.538 34.18 176.812 33.97 176.152 33.55C175.504 33.13 174.988 32.548 174.604 31.804C174.22 31.06 174.028 30.208 174.028 29.248C174.028 28.288 174.226 27.442 174.622 26.71C175.018 25.966 175.564 25.39 176.26 24.982C176.956 24.562 177.748 24.352 178.636 24.352C179.296 24.352 179.872 24.496 180.364 24.784C180.868 25.072 181.27 25.408 181.57 25.792V24.55H183.442ZM178.762 32.47C179.338 32.47 179.842 32.332 180.274 32.056C180.706 31.768 181.042 31.384 181.282 30.904C181.522 30.412 181.642 29.86 181.642 29.248C181.642 28.648 181.522 28.108 181.282 27.628C181.042 27.148 180.706 26.77 180.274 26.494C179.842 26.206 179.338 26.062 178.762 26.062C178.21 26.062 177.718 26.2 177.286 26.476C176.854 26.752 176.518 27.13 176.278 27.61C176.038 28.09 175.918 28.636 175.918 29.248C175.918 29.86 176.038 30.412 176.278 30.904C176.518 31.384 176.854 31.768 177.286 32.056C177.718 32.332 178.21 32.47 178.762 32.47Z" fill="#F4F4F7"/>
</svg>
