<svg width="101" height="100" viewBox="0 0 101 100" fill="none" xmlns="http://www.w3.org/2000/svg">
<path fill-rule="evenodd" clip-rule="evenodd" d="M97.1424 54.3297C97.1424 30.9877 78.6105 12.0755 55.7625 12.0755C44.9335 12.0755 35.0784 16.321 27.7014 23.2753C27.632 23.3406 27.5587 23.3989 27.4823 23.4501L31.3487 27.2019C37.7721 21.1749 46.3475 17.492 55.7625 17.492C75.698 17.492 91.8489 33.9905 91.8489 54.3297C91.8489 74.669 75.698 91.1675 55.7625 91.1675C35.827 91.1675 19.6761 74.669 19.6761 54.3297C19.6761 48.0115 21.2357 42.0598 23.985 36.8592C24.4242 36.0284 25.4422 35.7171 26.2587 36.164C27.0753 36.6108 27.3812 37.6466 26.942 38.4773C24.4494 43.1925 23.0337 48.5897 23.0337 54.3297C23.0337 72.7936 37.6924 87.7513 55.7625 87.7513C73.8326 87.7513 88.4913 72.7936 88.4913 54.3297C88.4913 35.8659 73.8326 20.9082 55.7625 20.9082C47.3026 20.9082 39.5948 24.1838 33.7839 29.565L37.6383 33.3052C42.4702 28.9619 48.8161 26.3246 55.7626 26.3246C70.9202 26.3246 83.1979 38.8686 83.1979 54.3297C83.1979 69.7909 70.9202 82.3348 55.7626 82.3348C40.6049 82.3348 28.3272 69.7909 28.3272 54.3297C28.3272 50.4663 29.0946 46.7814 30.4839 43.4284C30.844 42.5592 31.8286 42.1516 32.683 42.518C33.5373 42.8845 33.938 43.8862 33.5778 44.7555C32.3594 47.6958 31.6848 50.9301 31.6848 54.3297C31.6848 67.9155 42.4703 78.9187 55.7626 78.9187C69.0548 78.9187 79.8403 67.9155 79.8403 54.3297C79.8403 40.744 69.0548 29.7408 55.7626 29.7408C49.7711 29.7408 44.2931 31.9736 40.0782 35.6727L50.3931 45.6818C51.9454 44.675 53.7873 44.0919 55.7625 44.0919C61.3005 44.0919 65.7899 48.6755 65.7899 54.3297C65.7899 59.9838 61.3005 64.5675 55.7625 64.5675C50.2246 64.5675 45.7352 59.9838 45.7352 54.3297C45.7352 51.9292 46.5443 49.7217 47.8994 47.9759L17.2201 18.206H11.3443L0.5 7.90134H8.81513L8.81513 0L19.6594 10.3046V15.8591L25.1148 21.1529C25.1956 21.0141 25.2971 20.8846 25.4194 20.7694C33.3916 13.2541 44.0529 8.6594 55.7625 8.6594C80.4759 8.6594 100.5 29.1123 100.5 54.3297C100.5 79.5471 80.4759 100 55.7625 100C31.0492 100 11.025 79.5471 11.025 54.3297C11.025 45.621 13.4144 37.4765 17.5617 30.5482C18.044 29.7425 19.0769 29.4871 19.8688 29.9778C20.6606 30.4685 20.9116 31.5194 20.4293 32.3251C16.5937 38.7328 14.3826 46.2648 14.3826 54.3297C14.3826 77.6717 32.9146 96.5839 55.7625 96.5839C78.6105 96.5839 97.1424 77.6717 97.1424 54.3297ZM55.7625 61.9824C51.6361 61.9824 48.2759 58.5647 48.2759 54.3297C48.2759 50.0947 51.6361 46.677 55.7625 46.677C59.8889 46.677 63.2491 50.0947 63.2491 54.3297C63.2491 58.5647 59.8889 61.9824 55.7625 61.9824Z" fill="url(#paint0_linear_164_1418)"/>
<defs>
<linearGradient id="paint0_linear_164_1418" x1="50.5" y1="0" x2="50.5" y2="100" gradientUnits="userSpaceOnUse">
<stop stop-color="white"/>
<stop offset="1" stop-color="white"/>
</linearGradient>
</defs>
</svg>
