<svg width="45" height="45" viewBox="0 0 45 45" fill="none" xmlns="http://www.w3.org/2000/svg">
<path fill-rule="evenodd" clip-rule="evenodd" d="M1.87739 22.7048C6.1072 15.5122 13.7829 10.7072 22.5487 10.7072C29.4357 10.7072 35.6481 13.6723 40.0471 18.4313C40.3554 18.7649 40.8683 18.7782 41.1926 18.4611C41.5169 18.144 41.5298 17.6165 41.2215 17.283C36.5293 12.2068 29.8979 9.04056 22.5487 9.04056C13.0126 9.04056 4.68766 14.3703 0.234691 22.2875L0 22.7048L0.234691 23.1221C4.68766 31.0393 13.0126 36.3691 22.5487 36.3691C32.0849 36.3691 40.4098 31.0393 44.8628 23.1221C45.0869 22.7237 44.9545 22.2139 44.5672 21.9835C44.1798 21.753 43.6842 21.8892 43.4601 22.2875C39.2849 29.711 31.4831 34.7024 22.5487 34.7024C13.7829 34.7024 6.1072 29.8974 1.87739 22.7048Z" fill="url(#paint0_linear)"/>
<path fill-rule="evenodd" clip-rule="evenodd" d="M22.5449 15.4762C20.4445 15.4762 18.5626 16.4341 17.2879 17.9512C16.9953 18.2995 16.4837 18.3378 16.1451 18.0369C15.8065 17.7359 15.7693 17.2097 16.0618 16.8615C17.6313 14.9936 19.9541 13.8095 22.5449 13.8095C27.2754 13.8095 31.1102 17.7537 31.1102 22.619C31.1102 27.4844 27.2754 31.4286 22.5449 31.4286C17.8144 31.4286 13.9795 27.4844 13.9795 22.619C13.9795 22.1588 14.3423 21.7857 14.7898 21.7857C15.2373 21.7857 15.6 22.1588 15.6 22.619C15.6 26.5639 18.7093 29.7619 22.5449 29.7619C26.3804 29.7619 29.4898 26.5639 29.4898 22.619C29.4898 18.6742 26.3804 15.4762 22.5449 15.4762Z" fill="url(#paint1_linear)"/>
<path fill-rule="evenodd" clip-rule="evenodd" d="M22.5449 0C22.9924 0 23.3551 0.373096 23.3551 0.833333V7.74595C23.3551 8.20619 22.9924 8.57929 22.5449 8.57929C22.0974 8.57929 21.7347 8.20619 21.7347 7.74595V0.833333C21.7347 0.373096 22.0974 0 22.5449 0ZM10.702 1.80086C11.1117 1.61575 11.5897 1.80728 11.7697 2.22865L14.534 8.70062C14.714 9.12199 14.5278 9.61364 14.1181 9.79875C13.7084 9.98385 13.2304 9.79233 13.0504 9.37095L10.2861 2.89899C10.1061 2.47761 10.2923 1.98597 10.702 1.80086ZM34.3878 1.80086C34.7975 1.98597 34.9837 2.47761 34.8037 2.89899L32.0577 9.32798C31.8777 9.74935 31.3997 9.94088 30.99 9.75577C30.5803 9.57066 30.3941 9.07901 30.5741 8.65764L33.3201 2.22865C33.5 1.80728 33.9781 1.61575 34.3878 1.80086ZM0.323478 6.96107C0.637882 6.63357 1.15088 6.63022 1.4693 6.95359L6.58137 12.1451C6.89979 12.4685 6.90304 12.9961 6.58864 13.3236C6.27423 13.6511 5.76123 13.6544 5.44281 13.3311L0.330746 8.13955C0.0123286 7.81619 0.00907477 7.28856 0.323478 6.96107ZM44.7663 6.96107C45.0807 7.28856 45.0775 7.81619 44.759 8.13955L39.7093 13.2677C39.3909 13.5911 38.8779 13.5878 38.5635 13.2603C38.2491 12.9328 38.2524 12.4051 38.5708 12.0818L43.6205 6.95359C43.9389 6.63022 44.4519 6.63357 44.7663 6.96107Z" fill="url(#paint2_linear)"/>
<path fill-rule="evenodd" clip-rule="evenodd" d="M22.6606 45C22.2132 45 21.8504 44.6269 21.8504 44.1667V37.3923C21.8504 36.9321 22.2132 36.559 22.6606 36.559C23.1081 36.559 23.4709 36.9321 23.4709 37.3923V44.1667C23.4709 44.6269 23.1081 45 22.6606 45ZM34.446 43.2319C34.0373 43.4193 33.5583 43.2305 33.376 42.8101L30.6265 36.4676C30.4443 36.0473 30.6278 35.5546 31.0365 35.3672C31.4452 35.1797 31.9243 35.3686 32.1065 35.7889L34.8561 42.1314C35.0383 42.5518 34.8547 43.0445 34.446 43.2319ZM10.8753 43.2319C10.4666 43.0445 10.283 42.5518 10.4652 42.1314L13.1965 35.831C13.3787 35.4107 13.8578 35.2219 14.2665 35.4093C14.6752 35.5967 14.8588 36.0894 14.6765 36.5097L11.9453 42.8101C11.763 43.2305 11.284 43.4193 10.8753 43.2319ZM44.7705 38.1688C44.4585 38.4987 43.9455 38.5059 43.6248 38.185L38.54 33.0973C38.2193 32.7764 38.2122 32.2488 38.5243 31.9189C38.8363 31.589 39.3493 31.5818 39.67 31.9027L44.7547 36.9904C45.0755 37.3113 45.0826 37.8389 44.7705 38.1688ZM0.550771 38.1688C0.238737 37.8389 0.245798 37.3113 0.566539 36.9904L5.58923 31.9648C5.90997 31.6438 6.42294 31.6511 6.73497 31.981C7.047 32.3109 7.03994 32.8385 6.7192 33.1594L1.69651 38.185C1.37577 38.5059 0.862804 38.4987 0.550771 38.1688Z" fill="url(#paint3_linear)"/>
<defs>
<linearGradient id="paint0_linear" x1="22.5" y1="0" x2="22.5" y2="45" gradientUnits="userSpaceOnUse">
<stop stop-color="#484B75"/>
<stop offset="1" stop-color="#484B75" stop-opacity="0.5"/>
</linearGradient>
<linearGradient id="paint1_linear" x1="22.5" y1="0" x2="22.5" y2="45" gradientUnits="userSpaceOnUse">
<stop stop-color="#484B75"/>
<stop offset="1" stop-color="#484B75" stop-opacity="0.5"/>
</linearGradient>
<linearGradient id="paint2_linear" x1="22.5" y1="0" x2="22.5" y2="45" gradientUnits="userSpaceOnUse">
<stop stop-color="#484B75"/>
<stop offset="1" stop-color="#484B75" stop-opacity="0.5"/>
</linearGradient>
<linearGradient id="paint3_linear" x1="22.5" y1="0" x2="22.5" y2="45" gradientUnits="userSpaceOnUse">
<stop stop-color="#484B75"/>
<stop offset="1" stop-color="#484B75" stop-opacity="0.5"/>
</linearGradient>
</defs>
</svg>
