<svg width="34" height="40" viewBox="0 0 34 40" fill="none" xmlns="http://www.w3.org/2000/svg">
<path fill-rule="evenodd" clip-rule="evenodd" d="M21.4999 38.2054C28.4759 34.6693 33.0058 27.7732 33.3956 20.0963L34 8.19352L17.6333 0L0 8.19704L1.68404 21.4635C2.5639 28.3948 6.81495 34.4823 13.0953 37.8042L16.9273 39.8311C17.3453 40.0522 17.848 40.0565 18.2699 39.8426L21.4999 38.2054ZM3.10321 9.86258L4.53191 21.1175C5.29745 27.1483 8.99613 32.4447 14.4602 35.3348L17.624 37.0083L20.1796 35.7129C26.2489 32.6364 30.1903 26.6364 30.5294 19.957L31.0418 9.86609L17.5862 3.12997L3.10321 9.86258Z" fill="url(#paint0_linear)"/>
<path d="M27.395 13.3131C27.0586 12.9839 26.5131 12.9839 26.1767 13.3131L15.3157 23.9387L10.1898 18.9239C9.85342 18.5948 9.30794 18.5948 8.97154 18.9239C8.63523 19.2529 8.63523 19.7863 8.97154 20.1153L14.7066 25.7261C15.043 26.0552 15.5885 26.0552 15.9249 25.7261L27.395 14.5045C27.7313 14.1755 27.7313 13.6421 27.395 13.3131Z" fill="url(#paint1_linear)"/>
<defs>
<linearGradient id="paint0_linear" x1="17" y1="0" x2="17" y2="40" gradientUnits="userSpaceOnUse">
<stop stop-color="#F4F4F7"/>
<stop offset="1" stop-color="#D2D2DD"/>
</linearGradient>
<linearGradient id="paint1_linear" x1="17" y1="0" x2="17" y2="40" gradientUnits="userSpaceOnUse">
<stop stop-color="#F4F4F7"/>
<stop offset="1" stop-color="#D2D2DD"/>
</linearGradient>
</defs>
</svg>
