<svg width="40" height="40" viewBox="0 0 40 40" fill="none" xmlns="http://www.w3.org/2000/svg">
<path fill-rule="evenodd" clip-rule="evenodd" d="M6.18557 0C5.04971 0 4.03297 0.268715 3.16642 0.808827C2.30648 1.34482 1.67068 2.10026 1.20895 2.96363C0.305309 4.65333 0 6.88362 0 9.22092V18.3789C0 19.9463 1.32246 21.217 2.95455 21.217H10.1637V37.1614C10.1637 38.7693 11.6951 40 13.2831 40H37.0455C38.6781 40 40 38.7283 40 37.1614V2.83857C40 1.2832 38.7007 0 37.0562 0H6.18557ZM6.18557 2.55688C5.50119 2.55688 5.00089 2.71358 4.61579 2.95361C4.2241 3.19775 3.87388 3.57702 3.57719 4.13181C2.96387 5.27863 2.66234 7.01951 2.66234 9.22092V18.3789C2.66234 18.5349 2.79358 18.6601 2.95455 18.6601H10.3285V9.22092C10.3285 7.09001 9.8938 5.36608 9.15582 4.22022C8.45518 3.13232 7.49082 2.55688 6.18557 2.55688ZM11.2444 2.62189C11.3042 2.70226 11.3629 2.78642 11.4201 2.87522C12.5247 4.59035 12.7319 6.86467 12.7319 9.22092V37.1575C12.7319 37.1575 12.7457 37.2168 12.8762 37.3038C13.015 37.3964 13.1811 37.4431 13.2831 37.4431H37.0455C37.206 37.4431 37.3377 37.3178 37.3377 37.1614V2.83857C37.3377 2.75998 37.3095 2.71722 37.2765 2.68898C37.2377 2.65579 37.1651 2.62189 37.0562 2.62189H11.2444Z" fill="url(#paint0_linear)"/>
<path d="M29.4807 23.7307C29.4807 24.6916 29.1505 25.4924 28.4902 26.133C27.8299 26.7736 26.9421 27.1644 25.8269 27.3053L25.871 29.4001H24.3302L24.3742 27.363C22.7308 27.2733 21.4615 27.0362 20.5664 26.6519L21.1387 25.0375C22.518 25.5244 23.6846 25.7678 24.6384 25.7678C25.5922 25.7678 26.3038 25.5885 26.7734 25.2297C27.243 24.871 27.4777 24.4161 27.4777 23.8652C27.4777 23.3143 27.2136 22.8466 26.6853 22.4623C26.1718 22.0651 25.5261 21.6999 24.7484 21.3668C23.9854 21.0337 23.4865 20.8159 23.2517 20.7134C23.0316 20.5981 22.7455 20.4251 22.3933 20.1945C22.0411 19.951 21.777 19.7204 21.6009 19.5026C21.1607 18.9261 20.9406 18.2278 20.9406 17.4078C20.9406 16.5878 21.2634 15.9024 21.9091 15.3514C22.5694 14.7877 23.4204 14.4482 24.4623 14.3328L24.4183 12.2573H25.959L25.915 14.3136C26.8541 14.3649 27.8299 14.5507 28.8424 14.871L28.2921 16.3892C27.2356 16.0561 26.2745 15.8895 25.4087 15.8895C24.543 15.8895 23.912 16.0369 23.5158 16.3316C23.1196 16.6262 22.9215 17.017 22.9215 17.5039C22.9215 17.9779 23.1563 18.3815 23.6259 18.7147C24.0954 19.0478 24.7044 19.3873 25.4528 19.7332C26.2011 20.0664 26.7514 20.3354 27.1035 20.5404C27.4557 20.7326 27.8372 20.9952 28.2481 21.3284C29.0698 21.969 29.4807 22.7697 29.4807 23.7307Z" fill="url(#paint1_linear)"/>
<defs>
<linearGradient id="paint0_linear" x1="20" y1="0" x2="20" y2="40" gradientUnits="userSpaceOnUse">
<stop stop-color="#F4F4F7"/>
<stop offset="1" stop-color="#D2D2DD"/>
</linearGradient>
<linearGradient id="paint1_linear" x1="20" y1="0" x2="20" y2="40" gradientUnits="userSpaceOnUse">
<stop stop-color="#F4F4F7"/>
<stop offset="1" stop-color="#D2D2DD"/>
</linearGradient>
</defs>
</svg>
